{
    "names": [
      { "name": "John Doe" },
      { "name": "Alice Johnson" },
      { "name": "Michael Smith" },
      { "name": "Emily Davis" },
      { "name": "Daniel Brown" },
      { "name": "Olivia Taylor" },
      { "name": "Christopher Clark" },
      { "name": "Sophia Martinez" },
      { "name": "Matthew Anderson" },
      { "name": "Isabella Wilson" },
      { "name": "David Miller" },
      { "name": "Ava Moore" },
      { "name": "James Thompson" },
      { "name": "Emma Hernandez" },
      { "name": "Joseph Walker" },
      { "name": "Mia Lewis" },
      { "name": "Andrew Green" },
      { "name": "Charlotte Hill" },
      { "name": "William Adams" },
      { "name": "Abigail Turner" }
    ]
  }


  